0 0 0 0 
1 0 0 0 
2 0 0 0 
3 0 0 0 
4 0 0 0 
5 0 0 0 
6 0 0 0 
7 0 0 2 
8 1 0 1 
9 0 0 0 
10 0 0 1 
11 0 0 2 
12 0 2 1 
13 1 0 3 
14 1 1 3 
15 1 2 2 
16 1 1 5 
17 4 3 2 
18 5 5 7 
19 5 3 2 
20 6 1 1 
21 6 7 7 
22 8 9 8 
23 6 7 8 
24 4 7 5 
25 6 6 7 
26 8 6 7 
27 4 4 7 
28 5 5 3 
29 6 8 5 
30 3 5 5 
31 2 2 3 
32 9 6 5 
33 4 4 6 
34 2 0 2 
35 2 1 0 
36 5 8 7 
37 2 7 7 
38 4 2 4 
39 3 2 5 
40 12 10 6 
41 3 7 4 
42 5 1 5 
43 9 4 3 
44 10 7 6 
45 5 7 6 
46 2 3 2 
47 6 10 10 
48 10 11 5 
49 9 4 6 
50 6 5 3 
51 8 7 7 
52 5 5 9 
53 3 3 3 
54 5 6 8 
55 8 9 10 
56 4 10 11 
57 0 6 5 
58 10 9 4 
59 16 8 12 
60 17 7 10 
61 3 5 2 
62 10 6 12 
63 12 8 6 
64 7 7 4 
65 9 6 9 
66 12 17 11 
67 10 12 10 
68 7 5 6 
69 6 9 12 
70 14 22 19 
71 23 17 26 
72 15 8 14 
73 15 25 13 
74 25 29 37 
75 30 43 21 
76 12 21 21 
77 34 39 32 
78 54 42 47 
79 30 24 27 
80 43 30 43 
81 48 45 49 
82 62 67 74 
83 24 32 23 
84 44 57 47 
85 74 69 59 
86 64 75 67 
87 33 27 21 
88 87 43 69 
89 75 86 72 
90 79 86 94 
91 45 44 32 
92 77 82 81 
93 90 91 118 
94 80 75 75 
95 61 65 62 
96 124 126 130 
97 169 164 151 
98 319 331 337 
99 359 364 362 
100 121 137 134 
101 101 92 86 
102 60 40 43 
103 35 34 39 
104 78 58 66 
105 69 67 83 
106 21 19 18 
107 47 48 40 
108 42 64 51 
109 46 58 31 
110 23 16 16 
111 29 31 39 
112 43 34 47 
113 33 40 45 
114 12 19 11 
115 31 30 28 
116 31 18 27 
117 19 13 16 
118 5 11 8 
119 15 19 17 
120 15 16 17 
121 9 9 3 
122 9 9 12 
123 8 17 11 
124 9 12 12 
125 6 3 4 
126 11 11 9 
127 15 14 14 
128 4 6 9 
129 4 3 2 
130 9 6 4 
131 6 4 6 
132 7 2 8 
133 0 5 1 
134 6 7 4 
135 7 7 11 
136 4 4 2 
137 3 3 4 
138 3 3 5 
139 7 5 9 
140 4 1 3 
141 1 6 5 
142 10 3 4 
143 3 3 5 
144 2 0 1 
145 2 3 6 
146 2 8 6 
147 2 3 3 
148 2 1 2 
149 0 1 0 
150 4 2 1 
151 4 0 2 
152 2 0 3 
153 3 3 2 
154 3 0 1 
155 2 2 0 
156 1 3 1 
157 2 0 1 
158 0 5 3 
159 0 0 1 
160 1 0 2 
161 3 2 1 
162 1 2 4 
163 0 0 1 
164 2 0 2 
165 0 4 0 
166 0 0 2 
167 1 0 0 
168 3 4 1 
169 0 5 2 
170 1 1 2 
171 1 1 1 
172 1 3 1 
173 2 6 3 
174 0 3 1 
175 1 1 2 
176 2 3 1 
177 4 5 4 
178 5 4 5 
179 8 3 9 
180 9 9 3 
181 7 5 9 
182 1 2 1 
183 9 6 7 
184 4 7 12 
185 3 3 2 
186 2 7 4 
187 7 2 3 
188 10 4 1 
189 3 5 2 
190 0 1 3 
191 4 5 4 
192 6 7 7 
193 4 4 5 
194 1 3 2 
195 4 10 6 
196 11 7 6 
197 4 2 3 
198 3 3 2 
199 4 4 5 
200 7 5 4 
201 4 2 0 
202 5 3 4 
203 5 7 8 
204 5 1 3 
205 2 2 2 
206 3 5 3 
207 6 6 3 
208 5 3 4 
209 2 1 5 
210 2 5 5 
211 3 8 4 
212 3 3 4 
213 2 1 3 
214 2 2 2 
215 5 7 4 
216 3 3 2 
217 3 2 3 
218 2 8 3 
219 3 4 5 
220 1 1 2 
221 3 0 3 
222 3 4 5 
223 4 2 2 
224 1 1 0 
225 1 2 0 
226 2 3 4 
227 1 1 2 
228 2 1 1 
229 2 1 2 
230 3 1 2 
231 0 0 0 
232 1 0 1 
233 0 0 0 
234 0 1 1 
235 0 0 0 
236 0 1 1 
237 0 0 0 
238 0 1 0 
239 0 0 0 
240 1 0 0 
241 1 0 0 
242 0 0 0 
243 0 1 0 
244 1 0 0 
245 0 0 0 
246 0 0 1 
247 0 0 1 
248 1 0 1 
249 0 0 0 
250 0 0 2 
251 1 1 0 
252 1 1 1 
253 0 1 1 
254 2 0 0 
255 0 0 0 
